simulation/qsim/relogio_digital.msim.vcd
$comment
	File created using the following command:
		vcd file relogio_digital.msim.vcd -direction
$end
$date
	Wed Apr  6 17:17:34 2022
$end
$version
	ModelSim Version 2020.1
$end
$timescale
	1ps
$end

$scope module relogio_digital_vlg_vec_tst $end
$var reg 1 ! clock $end
$var reg 1 " reset $end
$var wire 1 # bcd_h_lsd [3] $end
$var wire 1 $ bcd_h_lsd [2] $end
$var wire 1 % bcd_h_lsd [1] $end
$var wire 1 & bcd_h_lsd [0] $end
$var wire 1 ' bcd_h_msd [1] $end
$var wire 1 ( bcd_h_msd [0] $end
$var wire 1 ) bcd_m_lsd [3] $end
$var wire 1 * bcd_m_lsd [2] $end
$var wire 1 + bcd_m_lsd [1] $end
$var wire 1 , bcd_m_lsd [0] $end
$var wire 1 - bcd_m_msd [2] $end
$var wire 1 . bcd_m_msd [1] $end
$var wire 1 / bcd_m_msd [0] $end
$var wire 1 0 bcd_s_lsd [3] $end
$var wire 1 1 bcd_s_lsd [2] $end
$var wire 1 2 bcd_s_lsd [1] $end
$var wire 1 3 bcd_s_lsd [0] $end
$var wire 1 4 bcd_s_msd [2] $end
$var wire 1 5 bcd_s_msd [1] $end
$var wire 1 6 bcd_s_msd [0] $end
$var wire 1 7 h_lsd [6] $end
$var wire 1 8 h_lsd [5] $end
$var wire 1 9 h_lsd [4] $end
$var wire 1 : h_lsd [3] $end
$var wire 1 ; h_lsd [2] $end
$var wire 1 < h_lsd [1] $end
$var wire 1 = h_lsd [0] $end
$var wire 1 > h_msd [6] $end
$var wire 1 ? h_msd [5] $end
$var wire 1 @ h_msd [4] $end
$var wire 1 A h_msd [3] $end
$var wire 1 B h_msd [2] $end
$var wire 1 C h_msd [1] $end
$var wire 1 D h_msd [0] $end
$var wire 1 E m_lsd [6] $end
$var wire 1 F m_lsd [5] $end
$var wire 1 G m_lsd [4] $end
$var wire 1 H m_lsd [3] $end
$var wire 1 I m_lsd [2] $end
$var wire 1 J m_lsd [1] $end
$var wire 1 K m_lsd [0] $end
$var wire 1 L m_msd [6] $end
$var wire 1 M m_msd [5] $end
$var wire 1 N m_msd [4] $end
$var wire 1 O m_msd [3] $end
$var wire 1 P m_msd [2] $end
$var wire 1 Q m_msd [1] $end
$var wire 1 R m_msd [0] $end
$var wire 1 S s_lsd [6] $end
$var wire 1 T s_lsd [5] $end
$var wire 1 U s_lsd [4] $end
$var wire 1 V s_lsd [3] $end
$var wire 1 W s_lsd [2] $end
$var wire 1 X s_lsd [1] $end
$var wire 1 Y s_lsd [0] $end
$var wire 1 Z s_msd [6] $end
$var wire 1 [ s_msd [5] $end
$var wire 1 \ s_msd [4] $end
$var wire 1 ] s_msd [3] $end
$var wire 1 ^ s_msd [2] $end
$var wire 1 _ s_msd [1] $end
$var wire 1 ` s_msd [0] $end

$scope module i1 $end
$var wire 1 a gnd $end
$var wire 1 b vcc $end
$var wire 1 c unknown $end
$var tri1 1 d devclrn $end
$var tri1 1 e devpor $end
$var tri1 1 f devoe $end
$var wire 1 g ~QUARTUS_CREATED_GND~I_combout $end
$var wire 1 h clock~input_o $end
$var wire 1 i clock~inputCLKENA0_outclk $end
$var wire 1 j reset~input_o $end
$var wire 1 k SEGUNDOS|maq_s_bcd_s_lsd~0_combout $end
$var wire 1 l meuhabilitador|contador[0]~0_combout $end
$var wire 1 m SEGUNDOS|maq_s_bcd_s_lsd[3]~1_combout $end
$var wire 1 n SEGUNDOS|maq_s_bcd_s_lsd~3_combout $end
$var wire 1 o SEGUNDOS|maq_s_bcd_s_lsd~2_combout $end
$var wire 1 p SEGUNDOS|maq_s_bcd_s_lsd~4_combout $end
$var wire 1 q SEGUNDOS_LSD|WideOr6~0_combout $end
$var wire 1 r SEGUNDOS_LSD|WideOr5~0_combout $end
$var wire 1 s SEGUNDOS_LSD|WideOr4~0_combout $end
$var wire 1 t SEGUNDOS_LSD|WideOr3~0_combout $end
$var wire 1 u SEGUNDOS_LSD|WideOr2~0_combout $end
$var wire 1 v SEGUNDOS_LSD|WideOr1~0_combout $end
$var wire 1 w SEGUNDOS_LSD|WideOr0~0_combout $end
$var wire 1 x SEGUNDOS|maq_s_bcd_s_msd~3_combout $end
$var wire 1 y SEGUNDOS|maq_s_bcd_s_msd[2]~1_combout $end
$var wire 1 z SEGUNDOS|maq_s_bcd_s_msd~0_combout $end
$var wire 1 { SEGUNDOS|maq_s_bcd_s_msd~2_combout $end
$var wire 1 | SEGUNDOS_MSD|WideOr6~0_combout $end
$var wire 1 } SEGUNDOS_MSD|WideOr5~0_combout $end
$var wire 1 ~ SEGUNDOS_MSD|WideOr4~0_combout $end
$var wire 1 !! SEGUNDOS_MSD|WideOr3~0_combout $end
$var wire 1 "! SEGUNDOS_MSD|Decoder0~0_combout $end
$var wire 1 #! SEGUNDOS_MSD|WideOr1~0_combout $end
$var wire 1 $! SEGUNDOS_MSD|WideOr0~0_combout $end
$var wire 1 %! MINUTOS|maq_m_bcd_m_lsd~0_combout $end
$var wire 1 &! SEGUNDOS|Equal0~0_combout $end
$var wire 1 '! SEGUNDOS|maq_s_incremento_minuto~0_combout $end
$var wire 1 (! SEGUNDOS|maq_s_incremento_minuto~q $end
$var wire 1 )! MINUTOS|maq_m_bcd_m_lsd[3]~1_combout $end
$var wire 1 *! MINUTOS|maq_m_bcd_m_lsd~4_combout $end
$var wire 1 +! MINUTOS|maq_m_bcd_m_lsd~2_combout $end
$var wire 1 ,! MINUTOS|maq_m_bcd_m_lsd~3_combout $end
$var wire 1 -! MINUTOS_LSD|WideOr6~0_combout $end
$var wire 1 .! MINUTOS_LSD|WideOr5~0_combout $end
$var wire 1 /! MINUTOS_LSD|WideOr4~0_combout $end
$var wire 1 0! MINUTOS_LSD|WideOr3~0_combout $end
$var wire 1 1! MINUTOS_LSD|WideOr2~0_combout $end
$var wire 1 2! MINUTOS_LSD|WideOr1~0_combout $end
$var wire 1 3! MINUTOS_LSD|WideOr0~0_combout $end
$var wire 1 4! MINUTOS|maq_m_bcd_m_msd~2_combout $end
$var wire 1 5! MINUTOS|Equal0~0_combout $end
$var wire 1 6! MINUTOS|maq_m_bcd_m_msd[2]~1_combout $end
$var wire 1 7! MINUTOS|maq_m_bcd_m_msd~3_combout $end
$var wire 1 8! MINUTOS|maq_m_bcd_m_msd~0_combout $end
$var wire 1 9! MINUTOS_MSD|WideOr6~0_combout $end
$var wire 1 :! MINUTOS_MSD|WideOr5~0_combout $end
$var wire 1 ;! MINUTOS_MSD|WideOr4~0_combout $end
$var wire 1 <! MINUTOS_MSD|WideOr3~0_combout $end
$var wire 1 =! MINUTOS_MSD|Decoder0~0_combout $end
$var wire 1 >! MINUTOS_MSD|WideOr1~0_combout $end
$var wire 1 ?! MINUTOS_MSD|WideOr0~0_combout $end
$var wire 1 @! HORAS|maq_h_bcd_h_lsd~0_combout $end
$var wire 1 A! MINUTOS|maq_m_incremento_hora~0_combout $end
$var wire 1 B! MINUTOS|maq_m_incremento_hora~q $end
$var wire 1 C! HORAS|maq_h_bcd_h_lsd[0]~1_combout $end
$var wire 1 D! HORAS|maq_h_bcd_h_msd[1]~0_combout $end
$var wire 1 E! HORAS|maq_h_bcd_h_msd[0]~1_combout $end
$var wire 1 F! HORAS|maq_h_bcd_h_lsd~4_combout $end
$var wire 1 G! HORAS_MSD|Decoder0~2_combout $end
$var wire 1 H! HORAS|maq_h_bcd_h_lsd~5_combout $end
$var wire 1 I! HORAS|maq_h_bcd_h_lsd~2_combout $end
$var wire 1 J! HORAS|maq_h_bcd_h_lsd~3_combout $end
$var wire 1 K! HORAS_LSD|WideOr6~0_combout $end
$var wire 1 L! HORAS_LSD|WideOr5~0_combout $end
$var wire 1 M! HORAS_LSD|WideOr4~0_combout $end
$var wire 1 N! HORAS_LSD|WideOr3~0_combout $end
$var wire 1 O! HORAS_LSD|WideOr2~0_combout $end
$var wire 1 P! HORAS_LSD|WideOr1~0_combout $end
$var wire 1 Q! HORAS_LSD|WideOr0~0_combout $end
$var wire 1 R! HORAS_MSD|Decoder0~0_combout $end
$var wire 1 S! HORAS_MSD|Decoder0~1_combout $end
$var wire 1 T! HORAS|maq_h_bcd_h_lsd [3] $end
$var wire 1 U! HORAS|maq_h_bcd_h_lsd [2] $end
$var wire 1 V! HORAS|maq_h_bcd_h_lsd [1] $end
$var wire 1 W! HORAS|maq_h_bcd_h_lsd [0] $end
$var wire 1 X! SEGUNDOS|maq_s_bcd_s_msd [2] $end
$var wire 1 Y! SEGUNDOS|maq_s_bcd_s_msd [1] $end
$var wire 1 Z! SEGUNDOS|maq_s_bcd_s_msd [0] $end
$var wire 1 [! MINUTOS|maq_m_bcd_m_msd [2] $end
$var wire 1 \! MINUTOS|maq_m_bcd_m_msd [1] $end
$var wire 1 ]! MINUTOS|maq_m_bcd_m_msd [0] $end
$var wire 1 ^! meuhabilitador|contador [1] $end
$var wire 1 _! meuhabilitador|contador [0] $end
$var wire 1 `! MINUTOS|maq_m_bcd_m_lsd [3] $end
$var wire 1 a! MINUTOS|maq_m_bcd_m_lsd [2] $end
$var wire 1 b! MINUTOS|maq_m_bcd_m_lsd [1] $end
$var wire 1 c! MINUTOS|maq_m_bcd_m_lsd [0] $end
$var wire 1 d! SEGUNDOS|maq_s_bcd_s_lsd [3] $end
$var wire 1 e! SEGUNDOS|maq_s_bcd_s_lsd [2] $end
$var wire 1 f! SEGUNDOS|maq_s_bcd_s_lsd [1] $end
$var wire 1 g! SEGUNDOS|maq_s_bcd_s_lsd [0] $end
$var wire 1 h! HORAS|maq_h_bcd_h_msd [1] $end
$var wire 1 i! HORAS|maq_h_bcd_h_msd [0] $end
$upscope $end
$upscope $end
$enddefinitions $end
#0
$dumpvars
0!
0"
0&
0%
0$
0#
0(
0'
0,
0+
0*
0)
0/
0.
0-
03
02
01
00
06
05
04
0=
1<
1;
1:
19
18
17
0D
1C
1B
1A
1@
1?
1>
0K
1J
1I
1H
1G
1F
1E
0R
1Q
1P
1O
1N
1M
1L
0Y
1X
1W
1V
1U
1T
1S
0`
1_
1^
1]
1\
1[
1Z
0a
1b
xc
1d
1e
1f
0g
0h
0i
0j
0k
0l
1m
0n
0o
0p
0q
0r
0s
0t
0u
0v
0w
0x
1y
0z
0{
1|
0}
0~
0!!
0"!
0#!
0$!
1%!
0&!
0'!
0(!
1)!
1*!
0+!
0,!
0-!
0.!
0/!
00!
01!
02!
03!
14!
05!
16!
07!
18!
19!
0:!
0;!
0<!
0=!
0>!
0?!
0@!
0A!
0B!
1C!
0D!
0E!
0F!
0G!
0H!
0I!
0J!
0K!
0L!
0M!
0N!
0O!
0P!
0Q!
0R!
0S!
0W!
0V!
0U!
0T!
0Z!
0Y!
0X!
0]!
0\!
0[!
0_!
z^!
0c!
0b!
0a!
0`!
0g!
0f!
0e!
0d!
0i!
0h!
$end
#100
1!
1h
1i
1[!
1]!
1`!
1c!
1,
1)
1/
1-
15!
1/!
1>!
1;!
09!
1-!
1K
1R
0P
0M
0I
#200
0!
0h
0i
#300
1!
1h
1i
#400
0!
0h
0i
#500
1!
1h
1i
#600
0!
0h
0i
#700
1!
1h
1i
#800
0!
0h
0i
#900
1!
1h
1i
#1000
0!
0h
0i
#1100
1!
1h
1i
#1200
0!
0h
0i
#1300
1!
1h
1i
#1400
0!
0h
0i
#1500
1!
1h
1i
#1600
0!
0h
0i
#1700
1!
1h
1i
#1800
0!
0h
0i
#1900
1!
1h
1i
#2000
0!
0h
0i
#2100
1!
1h
1i
#2200
0!
0h
0i
#2300
1!
1h
1i
#2400
0!
0h
0i
#2500
1!
1h
1i
#2600
0!
0h
0i
#2700
1!
1h
1i
#2800
0!
0h
0i
#2900
1!
1h
1i
#3000
0!
0h
0i
#3100
1!
1h
1i
#3200
0!
0h
0i
#3300
1!
1h
1i
#3400
0!
0h
0i
#3500
1!
1h
1i
#3600
0!
0h
0i
#3700
1!
1h
1i
#3800
0!
0h
0i
#3900
1!
1h
1i
#4000
0!
0h
0i
#4100
1!
1h
1i
#4200
0!
0h
0i
#4300
1!
1h
1i
#4400
0!
0h
0i
#4500
1!
1h
1i
#4600
0!
0h
0i
#4700
1!
1h
1i
#4800
0!
0h
0i
#4900
1!
1h
1i
#5000
0!
0h
0i
#5100
1!
1h
1i
#5200
0!
0h
0i
#5300
1!
1h
1i
#5400
0!
0h
0i
#5500
1!
1h
1i
#5600
0!
0h
0i
#5700
1!
1h
1i
#5800
0!
0h
0i
#5900
1!
1h
1i
#6000
0!
0h
0i
#6100
1!
1h
1i
#6200
0!
0h
0i
#6300
1!
1h
1i
#6400
0!
0h
0i
#6500
1!
1h
1i
#6600
0!
0h
0i
#6700
1!
1h
1i
#6800
0!
0h
0i
#6900
1!
1h
1i
#7000
0!
0h
0i
#7100
1!
1h
1i
#7200
0!
0h
0i
#7300
1!
1h
1i
#7400
0!
0h
0i
#7500
1!
1h
1i
#7600
0!
0h
0i
#7700
1!
1h
1i
#7800
0!
0h
0i
#7900
1!
1h
1i
#8000
0!
0h
0i
#8100
1!
1h
1i
#8200
0!
0h
0i
#8300
1!
1h
1i
#8400
0!
0h
0i
#8500
1!
1h
1i
#8600
0!
0h
0i
#8700
1!
1h
1i
#8800
0!
0h
0i
#8900
1!
1h
1i
#9000
0!
0h
0i
#9100
1!
1h
1i
#9200
0!
0h
0i
#9300
1!
1h
1i
#9400
0!
0h
0i
#9500
1!
1h
1i
#9600
0!
0h
0i
#9700
1!
1h
1i
#9800
0!
0h
0i
#9900
1!
1h
1i
#10000
0!
0h
0i
#10100
1!
1h
1i
#10200
0!
0h
0i
#10300
1!
1h
1i
#10400
0!
0h
0i
#10500
1!
1h
1i
#10600
0!
0h
0i
#10700
1!
1h
1i
#10800
0!
0h
0i
#10900
1!
1h
1i
#11000
0!
0h
0i
#11100
1!
1h
1i
#11200
0!
0h
0i
#11300
1!
1h
1i
#11400
0!
0h
0i
#11500
1!
1h
1i
#11600
0!
0h
0i
#11700
1!
1h
1i
#11800
0!
0h
0i
#11900
1!
1h
1i
#12000
0!
0h
0i
#12100
1!
1h
1i
#12200
0!
0h
0i
#12300
1!
1h
1i
#12400
0!
0h
0i
#12500
1!
1h
1i
#12600
0!
0h
0i
#12700
1!
1h
1i
#12800
0!
0h
0i
#12900
1!
1h
1i
#13000
0!
0h
0i
#13100
1!
1h
1i
#13200
0!
0h
0i
#13300
1!
1h
1i
#13400
0!
0h
0i
#13500
1!
1h
1i
#13600
0!
0h
0i
#13700
1!
1h
1i
#13800
0!
0h
0i
#13900
1!
1h
1i
#14000
0!
0h
0i
#14100
1!
1h
1i
#14200
0!
0h
0i
#14300
1!
1h
1i
#14400
0!
0h
0i
#14500
1!
1h
1i
#14600
0!
0h
0i
#14700
1!
1h
1i
#14800
0!
0h
0i
#14900
1!
1h
1i
#15000
0!
0h
0i
#15100
1!
1h
1i
#15200
0!
0h
0i
#15300
1!
1h
1i
#15400
0!
0h
0i
#15500
1!
1h
1i
#15600
0!
0h
0i
#15700
1!
1h
1i
#15800
0!
0h
0i
#15900
1!
1h
1i
#16000
0!
0h
0i
#16100
1!
1h
1i
#16200
0!
0h
0i
#16300
1!
1h
1i
#16400
0!
0h
0i
#16500
1!
1h
1i
#16600
0!
0h
0i
#16700
1!
1h
1i
#16800
0!
0h
0i
#16900
1!
1h
1i
#17000
0!
0h
0i
#17100
1!
1h
1i
#17200
0!
0h
0i
#17300
1!
1h
1i
#17400
0!
0h
0i
#17500
1!
1h
1i
#17600
0!
0h
0i
#17700
1!
1h
1i
#17800
0!
0h
0i
#17900
1!
1h
1i
#18000
0!
0h
0i
#18100
1!
1h
1i
#18200
0!
0h
0i
#18300
1!
1h
1i
#18400
0!
0h
0i
#18500
1!
1h
1i
#18600
0!
0h
0i
#18700
1!
1h
1i
#18800
0!
0h
0i
#18900
1!
1h
1i
#19000
0!
0h
0i
#19100
1!
1h
1i
#19200
0!
0h
0i
#19300
1!
1h
1i
#19400
0!
0h
0i
#19500
1!
1h
1i
#19600
0!
0h
0i
#19700
1!
1h
1i
#19800
0!
0h
0i
#19900
1!
1h
1i
#20000
0!
0h
0i
#20100
1!
1h
1i
#20200
0!
0h
0i
#20300
1!
1h
1i
#20400
0!
0h
0i
#20500
1!
1h
1i
#20600
0!
0h
0i
#20700
1!
1h
1i
#20800
0!
0h
0i
#20900
1!
1h
1i
#21000
0!
0h
0i
#21100
1!
1h
1i
#21200
0!
0h
0i
#21300
1!
1h
1i
#21400
0!
0h
0i
#21500
1!
1h
1i
#21600
0!
0h
0i
#21700
1!
1h
1i
#21800
0!
0h
0i
#21900
1!
1h
1i
#22000
0!
0h
0i
#22100
1!
1h
1i
#22200
0!
0h
0i
#22300
1!
1h
1i
#22400
0!
0h
0i
#22500
1!
1h
1i
#22600
0!
0h
0i
#22700
1!
1h
1i
#22800
0!
0h
0i
#22900
1!
1h
1i
#23000
0!
0h
0i
#23100
1!
1h
1i
#23200
0!
0h
0i
#23300
1!
1h
1i
#23400
0!
0h
0i
#23500
1!
1h
1i
#23600
0!
0h
0i
#23700
1!
1h
1i
#23800
0!
0h
0i
#23900
1!
1h
1i
#24000
0!
0h
0i
#24100
1!
1h
1i
#24200
0!
0h
0i
#24300
1!
1h
1i
#24400
0!
0h
0i
#24500
1!
1h
1i
#24600
0!
0h
0i
#24700
1!
1h
1i
#24800
0!
0h
0i
#24900
1!
1h
1i
#25000
0!
0h
0i
#25100
1!
1h
1i
#25200
0!
0h
0i
#25300
1!
1h
1i
#25400
0!
0h
0i
#25500
1!
1h
1i
#25600
0!
0h
0i
#25700
1!
1h
1i
#25800
0!
0h
0i
#25900
1!
1h
1i
#26000
0!
0h
0i
#26100
1!
1h
1i
#26200
0!
0h
0i
#26300
1!
1h
1i
#26400
0!
0h
0i
#26500
1!
1h
1i
#26600
0!
0h
0i
#26700
1!
1h
1i
#26800
0!
0h
0i
#26900
1!
1h
1i
#27000
0!
0h
0i
#27100
1!
1h
1i
#27200
0!
0h
0i
#27300
1!
1h
1i
#27400
0!
0h
0i
#27500
1!
1h
1i
#27600
0!
0h
0i
#27700
1!
1h
1i
#27800
0!
0h
0i
#27900
1!
1h
1i
#28000
0!
0h
0i
#28100
1!
1h
1i
#28200
0!
0h
0i
#28300
1!
1h
1i
#28400
0!
0h
0i
#28500
1!
1h
1i
#28600
0!
0h
0i
#28700
1!
1h
1i
#28800
0!
0h
0i
#28900
1!
1h
1i
#29000
0!
0h
0i
#29100
1!
1h
1i
#29200
0!
0h
0i
#29300
1!
1h
1i
#29400
0!
0h
0i
#29500
1!
1h
1i
#29600
0!
0h
0i
#29700
1!
1h
1i
#29800
0!
0h
0i
#29900
1!
1h
1i
#30000
0!
0h
0i
#30100
1!
1h
1i
#30200
0!
0h
0i
#30300
1!
1h
1i
#30400
0!
0h
0i
#30500
1!
1h
1i
#30600
0!
0h
0i
#30700
1!
1h
1i
#30800
0!
0h
0i
#30900
1!
1h
1i
#31000
0!
0h
0i
#31100
1!
1h
1i
#31200
0!
0h
0i
#31300
1!
1h
1i
#31400
0!
0h
0i
#31500
1!
1h
1i
#31600
0!
0h
0i
#31700
1!
1h
1i
#31800
0!
0h
0i
#31900
1!
1h
1i
#32000
0!
0h
0i
#32100
1!
1h
1i
#32200
0!
0h
0i
#32300
1!
1h
1i
#32400
0!
0h
0i
#32500
1!
1h
1i
#32600
0!
0h
0i
#32700
1!
1h
1i
#32800
0!
0h
0i
#32900
1!
1h
1i
#33000
0!
0h
0i
#33100
1!
1h
1i
#33200
0!
0h
0i
#33300
1!
1h
1i
#33400
0!
0h
0i
#33500
1!
1h
1i
#33600
0!
0h
0i
#33700
1!
1h
1i
#33800
0!
0h
0i
#33900
1!
1h
1i
#34000
0!
0h
0i
#34100
1!
1h
1i
#34200
0!
0h
0i
#34300
1!
1h
1i
#34400
0!
0h
0i
#34500
1!
1h
1i
#34600
0!
0h
0i
#34700
1!
1h
1i
#34800
0!
0h
0i
#34900
1!
1h
1i
#35000
0!
0h
0i
#35100
1!
1h
1i
#35200
0!
0h
0i
#35300
1!
1h
1i
#35400
0!
0h
0i
#35500
1!
1h
1i
#35600
0!
0h
0i
#35700
1!
1h
1i
#35800
0!
0h
0i
#35900
1!
1h
1i
#36000
0!
0h
0i
#36100
1!
1h
1i
#36200
0!
0h
0i
#36300
1!
1h
1i
#36400
0!
0h
0i
#36500
1!
1h
1i
#36600
0!
0h
0i
#36700
1!
1h
1i
#36800
0!
0h
0i
#36900
1!
1h
1i
#37000
0!
0h
0i
#37100
1!
1h
1i
#37200
0!
0h
0i
#37300
1!
1h
1i
#37400
0!
0h
0i
#37500
1!
1h
1i
#37600
0!
0h
0i
#37700
1!
1h
1i
#37800
0!
0h
0i
#37900
1!
1h
1i
#38000
0!
0h
0i
#38100
1!
1h
1i
#38200
0!
0h
0i
#38300
1!
1h
1i
#38400
0!
0h
0i
#38500
1!
1h
1i
#38600
0!
0h
0i
#38700
1!
1h
1i
#38800
0!
0h
0i
#38900
1!
1h
1i
#39000
0!
0h
0i
#39100
1!
1h
1i
#39200
0!
0h
0i
#39300
1!
1h
1i
#39400
0!
0h
0i
#39500
1!
1h
1i
#39600
0!
0h
0i
#39700
1!
1h
1i
#39800
0!
0h
0i
#39900
1!
1h
1i
#40000
1"
0!
1j
0h
0i
0C!
06!
0)!
0y
0m
1@!
08!
04!
0*!
0%!
1x
1k
1l
#40100
1!
1h
1i
1_!
1m
0l
#40200
0!
0h
0i
#40300
1!
1h
1i
0_!
1g!
13
0m
1w
1t
1s
1r
1o
0k
0X
0W
0V
0S
1l
#40400
0!
0h
0i
#40500
1!
1h
1i
1_!
1m
0l
#40600
0!
0h
0i
#40700
1!
1h
1i
0_!
1f!
0g!
03
12
0m
0w
1u
0t
0s
1q
1k
1Y
1W
1V
0U
1S
1l
#40800
0!
0h
0i
#40900
1!
1h
1i
1_!
1m
0l
#41000
0!
0h
0i
#41100
1!
1h
1i
0_!
1g!
13
0m
0u
1s
0o
1n
0k
0W
1U
1l
#41200
0!
0h
0i
#41300
1!
1h
1i
1_!
1m
0l
#41400
0!
0h
0i
#41500
1!
1h
1i
0_!
0f!
1e!
0g!
03
11
02
0m
1w
1t
0r
1k
1X
0V
0S
1l
#41600
0!
0h
0i
#41700
1!
1h
1i
1_!
1m
0l
#41800
0!
0h
0i
#41900
1!
1h
1i
0_!
1g!
13
0m
0w
1v
0t
1o
0k
1V
0T
1S
1l
#42000
0!
0h
0i
#42100
1!
1h
1i
1_!
1m
0l
#42200
0!
0h
0i
#42300
1!
1h
1i
0_!
1f!
0g!
03
12
0m
0s
1k
1W
1l
#42400
0!
0h
0i
#42500
1!
1h
1i
1_!
1m
0l
#42600
0!
0h
0i
#42700
1!
1h
1i
0_!
1g!
13
0m
0v
1t
1s
1r
0q
1p
0o
0n
0k
0Y
0X
0W
0V
1T
1l
#42800
0!
0h
0i
#42900
1!
1h
1i
1_!
1m
0l
#43000
0!
0h
0i
#43100
1!
1h
1i
0_!
1d!
0f!
0e!
0g!
03
01
02
10
0m
0t
0s
0r
1q
1k
1Y
1X
1W
1V
1l
#43200
0!
0h
0i
#43300
1!
1h
1i
1_!
1m
0l
#43400
0!
0h
0i
#43500
1!
1h
1i
0_!
1g!
13
0m
1&!
1s
0p
0k
0W
1l
#43600
0!
0h
0i
#43700
1!
1h
1i
1_!
1y
1m
0l
#43800
0!
0h
0i
#43900
1!
1h
1i
0_!
1Z!
0d!
0g!
03
00
16
0y
0m
0&!
0s
1$!
1!!
1~
1}
0q
1k
1z
0x
0Y
0_
0^
0]
0Z
1W
1l
#44000
0!
0h
0i
#44100
1!
1h
1i
1_!
1m
0l
#44200
0!
0h
0i
#44300
1!
1h
1i
0_!
1g!
13
0m
1w
1t
1s
1r
1o
0k
0X
0W
0V
0S
1l
#44400
0!
0h
0i
#44500
1!
1h
1i
1_!
1m
0l
#44600
0!
0h
0i
#44700
1!
1h
1i
0_!
1f!
0g!
03
12
0m
0w
1u
0t
0s
1q
1k
1Y
1W
1V
0U
1S
1l
#44800
0!
0h
0i
#44900
1!
1h
1i
1_!
1m
0l
#45000
0!
0h
0i
#45100
1!
1h
1i
0_!
1g!
13
0m
0u
1s
0o
1n
0k
0W
1U
1l
#45200
0!
0h
0i
#45300
1!
1h
1i
1_!
1m
0l
#45400
0!
0h
0i
#45500
1!
1h
1i
0_!
0f!
1e!
0g!
03
11
02
0m
1w
1t
0r
1k
1X
0V
0S
1l
#45600
0!
0h
0i
#45700
1!
1h
1i
1_!
1m
0l
#45800
0!
0h
0i
#45900
1!
1h
1i
0_!
1g!
13
0m
0w
1v
0t
1o
0k
1V
0T
1S
1l
#46000
0!
0h
0i
#46100
1!
1h
1i
1_!
1m
0l
#46200
0!
0h
0i
#46300
1!
1h
1i
0_!
1f!
0g!
03
12
0m
0s
1k
1W
1l
#46400
0!
0h
0i
#46500
1!
1h
1i
1_!
1m
0l
#46600
0!
0h
0i
#46700
1!
1h
1i
0_!
1g!
13
0m
0v
1t
1s
1r
0q
1p
0o
0n
0k
0Y
0X
0W
0V
1T
1l
#46800
0!
0h
0i
#46900
1!
1h
1i
1_!
1m
0l
#47000
0!
0h
0i
#47100
1!
1h
1i
0_!
1d!
0f!
0e!
0g!
03
01
02
10
0m
0t
0s
0r
1q
1k
1Y
1X
1W
1V
1l
#47200
0!
0h
0i
#47300
1!
1h
1i
1_!
1m
0l
#47400
0!
0h
0i
#47500
1!
1h
1i
0_!
1g!
13
0m
1&!
1s
0p
0k
0W
1l
#47600
0!
0h
0i
#47700
1!
1h
1i
1_!
1y
1m
0l
#47800
0!
0h
0i
#47900
1!
1h
1i
0_!
1Y!
0Z!
0d!
0g!
03
00
06
15
0y
0m
0&!
0s
0$!
1"!
0!!
0~
0|
0q
1k
1x
0Y
1`
1^
1]
0\
1Z
1W
1l
#48000
0!
0h
0i
#48100
1!
1h
1i
1_!
1m
0l
#48200
0!
0h
0i
#48300
1!
1h
1i
0_!
1g!
13
0m
1w
1t
1s
1r
1o
0k
0X
0W
0V
0S
1l
#48400
0!
0h
0i
#48500
1!
1h
1i
1_!
1m
0l
#48600
0!
0h
0i
#48700
1!
1h
1i
0_!
1f!
0g!
03
12
0m
0w
1u
0t
0s
1q
1k
1Y
1W
1V
0U
1S
1l
#48800
0!
0h
0i
#48900
1!
1h
1i
1_!
1m
0l
#49000
0!
0h
0i
#49100
1!
1h
1i
0_!
1g!
13
0m
0u
1s
0o
1n
0k
0W
1U
1l
#49200
0!
0h
0i
#49300
1!
1h
1i
1_!
1m
0l
#49400
0!
0h
0i
#49500
1!
1h
1i
0_!
0f!
1e!
0g!
03
11
02
0m
1w
1t
0r
1k
1X
0V
0S
1l
#49600
0!
0h
0i
#49700
1!
1h
1i
1_!
1m
0l
#49800
0!
0h
0i
#49900
1!
1h
1i
0_!
1g!
13
0m
0w
1v
0t
1o
0k
1V
0T
1S
1l
#50000
0!
0h
0i
#50100
1!
1h
1i
1_!
1m
0l
#50200
0!
0h
0i
#50300
1!
1h
1i
0_!
1f!
0g!
03
12
0m
0s
1k
1W
1l
#50400
0!
0h
0i
#50500
1!
1h
1i
1_!
1m
0l
#50600
0!
0h
0i
#50700
1!
1h
1i
0_!
1g!
13
0m
0v
1t
1s
1r
0q
1p
0o
0n
0k
0Y
0X
0W
0V
1T
1l
#50800
0!
0h
0i
#50900
1!
1h
1i
1_!
1m
0l
#51000
0!
0h
0i
#51100
1!
1h
1i
0_!
1d!
0f!
0e!
0g!
03
01
02
10
0m
0t
0s
0r
1q
1k
1Y
1X
1W
1V
1l
#51200
0!
0h
0i
#51300
1!
1h
1i
1_!
1m
0l
#51400
0!
0h
0i
#51500
1!
1h
1i
0_!
1g!
13
0m
1&!
1s
0p
0k
0W
1l
#51600
0!
0h
0i
#51700
1!
1h
1i
1_!
1y
1m
0l
#51800
0!
0h
0i
#51900
1!
1h
1i
0_!
1Z!
0d!
0g!
03
00
16
0y
0m
0&!
0s
0"!
1~
0q
1k
1{
0z
0x
0Y
0^
1\
1W
1l
#52000
0!
0h
0i
#52100
1!
1h
1i
1_!
1m
0l
#52200
0!
0h
0i
#52300
1!
1h
1i
0_!
1g!
13
0m
1w
1t
1s
1r
1o
0k
0X
0W
0V
0S
1l
#52400
0!
0h
0i
#52500
1!
1h
1i
1_!
1m
0l
#52600
0!
0h
0i
#52700
1!
1h
1i
0_!
1f!
0g!
03
12
0m
0w
1u
0t
0s
1q
1k
1Y
1W
1V
0U
1S
1l
#52800
0!
0h
0i
#52900
1!
1h
1i
1_!
1m
0l
#53000
0!
0h
0i
#53100
1!
1h
1i
0_!
1g!
13
0m
0u
1s
0o
1n
0k
0W
1U
1l
#53200
0!
0h
0i
#53300
1!
1h
1i
1_!
1m
0l
#53400
0!
0h
0i
#53500
1!
1h
1i
0_!
0f!
1e!
0g!
03
11
02
0m
1w
1t
0r
1k
1X
0V
0S
1l
#53600
0!
0h
0i
#53700
1!
1h
1i
1_!
1m
0l
#53800
0!
0h
0i
#53900
1!
1h
1i
0_!
1g!
13
0m
0w
1v
0t
1o
0k
1V
0T
1S
1l
#54000
0!
0h
0i
#54100
1!
1h
1i
1_!
1m
0l
#54200
0!
0h
0i
#54300
1!
1h
1i
0_!
1f!
0g!
03
12
0m
0s
1k
1W
1l
#54400
0!
0h
0i
#54500
1!
1h
1i
1_!
1m
0l
#54600
0!
0h
0i
#54700
1!
1h
1i
0_!
1g!
13
0m
0v
1t
1s
1r
0q
1p
0o
0n
0k
0Y
0X
0W
0V
1T
1l
#54800
0!
0h
0i
#54900
1!
1h
1i
1_!
1m
0l
#55000
0!
0h
0i
#55100
1!
1h
1i
0_!
1d!
0f!
0e!
0g!
03
01
02
10
0m
0t
0s
0r
1q
1k
1Y
1X
1W
1V
1l
#55200
0!
0h
0i
